





























191.4
168.6
191.3
191.8
169.1
191.8
192.6
169.9
192.6
192.9
170.2
192.8
191.5
168.7
191.4
192.3
169.6
192.2
192.6
169.8
192.5
190.2 
169.0 
190.2 
190.7 
168.0 
190.7 
192.8
170.1
192.8
191.6 
168.8 
191.6 
190.8 
168.0 
190.7 
192.6
169.7
192.4
191.5 
168.8 
191.5 
190.1
167.1
189.4
190.8
167.9
191.5
192.1
169.3
192.2
169.5
191.5
168.7
190.5
167.6







































